%YAML 1.1
%TAG !u! tag:unity3d.com,2011:
--- !u!21 &2100000
Material:
  serializedVersion: 6
  m_ObjectHideFlags: 0
  m_CorrespondingSourceObject: {fileID: 0}
  m_PrefabInstance: {fileID: 0}
  m_PrefabAsset: {fileID: 0}
  m_Name: tree2_leaf
  m_Shader: {fileID: -6465566751694194690, guid: 40fa49b2277e3ce4c9ec99ef6437c4ea, type: 3}
  m_ShaderKeywords: BOOLEAN_USE_WROLDSPACE_ON BOOLEAN_WORLDORIGIN_ON _ALPHATEST_ON
  m_LightmapFlags: 4
  m_EnableInstancingVariants: 0
  m_DoubleSidedGI: 0
  m_CustomRenderQueue: -1
  stringTagMap: {}
  disabledShaderPasses: []
  m_SavedProperties:
    serializedVersion: 3
    m_TexEnvs:
    - _BaseMap:
        m_Texture: {fileID: 2800000, guid: 3fb06fe8beabf3247af916702c85bc5b, type: 3}
        m_Scale: {x: 1, y: 1}
        m_Offset: {x: 0, y: 0}
    - _BumpMap:
        m_Texture: {fileID: 2800000, guid: 56e1d981b8e51f74ca3dff1fe967c599, type: 3}
        m_Scale: {x: 1, y: 1}
        m_Offset: {x: 0, y: 0}
    - _EmissionMap:
        m_Texture: {fileID: 0}
        m_Scale: {x: 1, y: 1}
        m_Offset: {x: 0, y: 0}
    - _MainTex:
        m_Texture: {fileID: 2800000, guid: 3fb06fe8beabf3247af916702c85bc5b, type: 3}
        m_Scale: {x: 1, y: 1}
        m_Offset: {x: 0, y: 0}
    - _NormalMap:
        m_Texture: {fileID: 2800000, guid: 56e1d981b8e51f74ca3dff1fe967c599, type: 3}
        m_Scale: {x: 1, y: 1}
        m_Offset: {x: 0, y: 0}
    - _OcclusionMap:
        m_Texture: {fileID: 0}
        m_Scale: {x: 1, y: 1}
        m_Offset: {x: 0, y: 0}
    - _R_Metallic_G_Occulsion_A_Smoothness:
        m_Texture: {fileID: 0}
        m_Scale: {x: 1, y: 1}
        m_Offset: {x: 0, y: 0}
    - _SpecGlossMap:
        m_Texture: {fileID: 0}
        m_Scale: {x: 1, y: 1}
        m_Offset: {x: 0, y: 0}
    - _texcoord:
        m_Texture: {fileID: 0}
        m_Scale: {x: 1, y: 1}
        m_Offset: {x: 0, y: 0}
    - unity_Lightmaps:
        m_Texture: {fileID: 0}
        m_Scale: {x: 1, y: 1}
        m_Offset: {x: 0, y: 0}
    - unity_LightmapsInd:
        m_Texture: {fileID: 0}
        m_Scale: {x: 1, y: 1}
        m_Offset: {x: 0, y: 0}
    - unity_ShadowMasks:
        m_Texture: {fileID: 0}
        m_Scale: {x: 1, y: 1}
        m_Offset: {x: 0, y: 0}
    m_Floats:
    - BOOLEAN_DIRECTION_FROM_EULERANGLE: 0
    - BOOLEAN_USE_WROLDSPACE: 1
    - BOOLEAN_WORLDORIGIN: 1
    - Boolean_005fc0de7ecc4641a2413c0ae6402141: 1
    - _AlphaClip: 1
    - _AlphaCutoff: 0.5
    - _AmbientOcclusion: 0.11
    - _Blend: 0
    - _BumpScale: 1
    - _ColorShifting: 1
    - _ColorSource: 0
    - _ColorVariation: 0.15
    - _Cull: 2
    - _CullMode: 0
    - _Cutoff: 0
    - _DierctionEdgeWidthScale: 10
    - _Dissolve: 0
    - _DoubleSidedNormalMode: 0
    - _DstBlend: 0
    - _EdgeColorIntensity: 1
    - _EdgeWidth: 0.05
    - _GlobalTurbulenceInfluence: 1
    - _GlobalWindInfluence: 1
    - _Glossiness: 0
    - _GlossinessSource: 0
    - _Hue: -0.5
    - _Metallic: 0
    - _NoiseScale: 10.6
    - _NormalScale: 1
    - _OcclusionStrength: 0
    - _Opacity: 1
    - _QueueOffset: 0
    - _ReceiveShadows: 1
    - _Saturation: 1
    - _Shininess: 0
    - _Smoothness: 0
    - _SmoothnessSource: 1
    - _SpecSource: 0
    - _SpecularHighlights: 1
    - _SrcBlend: 1
    - _Surface: 0
    - _TransNormalDistortion: 0
    - _TransScale: 0
    - _TransScattering: 1
    - _Translucency: 0
    - _TranslucencyEnum: 1
    - _Value: 1
    - _WindModeLeaves: 0
    - _ZWrite: 1
    m_Colors:
    - Vector3_6f4ea1db7c40488f8a1266d310c2609d: {r: 0, g: 1, b: 0, a: 0}
    - Vector3_d8da429189eb427fbe12fe5ef2259ac0: {r: 0, g: 10.7, b: 0, a: 0}
    - _BaseColor: {r: 0.43519044, g: 0.49056602, b: 0.3211819, a: 1}
    - _Color: {r: 1, g: 1, b: 1, a: 1}
    - _DissolveDirection: {r: 0, g: -1, b: 0, a: 0}
    - _DissolveOffset: {r: 0, g: 10.89, b: 0, a: 0}
    - _EdgeColor: {r: 0.18867922, g: 0.18867922, b: 0.18867922, a: 1}
    - _EmissionColor: {r: 0, g: 0, b: 0, a: 1}
    - _NoiseUVSpeed: {r: 1, g: 1, b: 0, a: 0}
    - _Offest: {r: 0, g: 0, b: 0, a: 0}
    - _Offset: {r: 0, g: 0, b: 0, a: 0}
    - _SpecColor: {r: 0.5, g: 0.5, b: 0.5, a: 0.5}
    - _Tiling: {r: 1, g: 1, b: 0, a: 0}
    - _TranslucencyTint: {r: 0.6981132, g: 0.6981132, b: 0.6981132, a: 0}
  m_BuildTextureStacks: []
--- !u!114 &1712689233066905362
MonoBehaviour:
  m_ObjectHideFlags: 11
  m_CorrespondingSourceObject: {fileID: 0}
  m_PrefabInstance: {fileID: 0}
  m_PrefabAsset: {fileID: 0}
  m_GameObject: {fileID: 0}
  m_Enabled: 1
  m_EditorHideFlags: 0
  m_Script: {fileID: 11500000, guid: d0353a89b1f911e48b9e16bdc9f2e058, type: 3}
  m_Name: 
  m_EditorClassIdentifier: 
  version: 4
