%YAML 1.1
%TAG !u! tag:unity3d.com,2011:
--- !u!114 &738438840
MonoBehaviour:
  m_ObjectHideFlags: 0
  m_CorrespondingSourceObject: {fileID: 0}
  m_PrefabInstance: {fileID: 0}
  m_PrefabAsset: {fileID: 0}
  m_GameObject: {fileID: 916723121463247338}
  m_Enabled: 1
  m_EditorHideFlags: 0
  m_Script: {fileID: 11500000, guid: 963c7842b177db843a0e6e9e0992bb52, type: 3}
  m_Name: 
  m_EditorClassIdentifier: 
  invertedChange: 1
--- !u!1001 &917784622630700888
PrefabInstance:
  m_ObjectHideFlags: 0
  serializedVersion: 2
  m_Modification:
    m_TransformParent: {fileID: 0}
    m_Modifications:
    - target: {fileID: 1260667391461042, guid: b079a37c4b5dcc04f8e4051b59038ce0, type: 3}
      propertyPath: m_Name
      value: Concrete Column Type 3 Static Variant
      objectReference: {fileID: 0}
    - target: {fileID: 4723965835030560, guid: b079a37c4b5dcc04f8e4051b59038ce0, type: 3}
      propertyPath: m_RootOrder
      value: 0
      objectReference: {fileID: 0}
    - target: {fileID: 4723965835030560, guid: b079a37c4b5dcc04f8e4051b59038ce0, type: 3}
      propertyPath: m_LocalScale.x
      value: 1.11
      objectReference: {fileID: 0}
    - target: {fileID: 4723965835030560, guid: b079a37c4b5dcc04f8e4051b59038ce0, type: 3}
      propertyPath: m_LocalScale.y
      value: 2.5
      objectReference: {fileID: 0}
    - target: {fileID: 4723965835030560, guid: b079a37c4b5dcc04f8e4051b59038ce0, type: 3}
      propertyPath: m_LocalScale.z
      value: 3.5554807
      objectReference: {fileID: 0}
    - target: {fileID: 4723965835030560, guid: b079a37c4b5dcc04f8e4051b59038ce0, type: 3}
      propertyPath: m_LocalPosition.x
      value: -41.395702
      objectReference: {fileID: 0}
    - target: {fileID: 4723965835030560, guid: b079a37c4b5dcc04f8e4051b59038ce0, type: 3}
      propertyPath: m_LocalPosition.y
      value: 0.21723008
      objectReference: {fileID: 0}
    - target: {fileID: 4723965835030560, guid: b079a37c4b5dcc04f8e4051b59038ce0, type: 3}
      propertyPath: m_LocalPosition.z
      value: 62.118
      objectReference: {fileID: 0}
    - target: {fileID: 4723965835030560, guid: b079a37c4b5dcc04f8e4051b59038ce0, type: 3}
      propertyPath: m_LocalRotation.w
      value: -0.010286612
      objectReference: {fileID: 0}
    - target: {fileID: 4723965835030560, guid: b079a37c4b5dcc04f8e4051b59038ce0, type: 3}
      propertyPath: m_LocalRotation.x
      value: -0.00008940446
      objectReference: {fileID: 0}
    - target: {fileID: 4723965835030560, guid: b079a37c4b5dcc04f8e4051b59038ce0, type: 3}
      propertyPath: m_LocalRotation.y
      value: 0.008690575
      objectReference: {fileID: 0}
    - target: {fileID: 4723965835030560, guid: b079a37c4b5dcc04f8e4051b59038ce0, type: 3}
      propertyPath: m_LocalRotation.z
      value: 0.99990934
      objectReference: {fileID: 0}
    - target: {fileID: 4723965835030560, guid: b079a37c4b5dcc04f8e4051b59038ce0, type: 3}
      propertyPath: m_LocalEulerAnglesHint.x
      value: -0.996
      objectReference: {fileID: 0}
    - target: {fileID: 4723965835030560, guid: b079a37c4b5dcc04f8e4051b59038ce0, type: 3}
      propertyPath: m_LocalEulerAnglesHint.y
      value: -0.02
      objectReference: {fileID: 0}
    - target: {fileID: 4723965835030560, guid: b079a37c4b5dcc04f8e4051b59038ce0, type: 3}
      propertyPath: m_LocalEulerAnglesHint.z
      value: 181.179
      objectReference: {fileID: 0}
    - target: {fileID: 23590281192930886, guid: b079a37c4b5dcc04f8e4051b59038ce0, type: 3}
      propertyPath: m_Materials.Array.data[0]
      value: 
      objectReference: {fileID: 2100000, guid: aad3293dd592b479baa388eea7df8333, type: 2}
    m_RemovedComponents: []
  m_SourcePrefab: {fileID: 100100000, guid: b079a37c4b5dcc04f8e4051b59038ce0, type: 3}
--- !u!1 &916723121463247338 stripped
GameObject:
  m_CorrespondingSourceObject: {fileID: 1260667391461042, guid: b079a37c4b5dcc04f8e4051b59038ce0, type: 3}
  m_PrefabInstance: {fileID: 917784622630700888}
  m_PrefabAsset: {fileID: 0}
